<svg width="141" height="141" viewBox="0 0 141 141" fill="none" xmlns="http://www.w3.org/2000/svg">
<path d="M131.495 106.354H122.533V76.4812H128.507C130.091 76.4797 131.61 75.8499 132.731 74.7299C133.851 73.61 134.482 72.0914 134.484 70.5071V46.608C134.482 45.0238 133.851 43.5052 132.731 42.3852C131.61 41.2653 130.091 40.6355 128.507 40.6339H122.232C121.642 37.7662 120.224 35.1344 118.154 33.0639C116.084 30.9933 113.452 29.5749 110.585 28.9841V7.76081C110.58 6.17885 109.949 4.66314 108.829 3.5456C107.71 2.42805 106.193 1.79973 104.611 1.79822H98.6338C97.0498 1.79974 95.5312 2.42963 94.4111 3.54966C93.2911 4.66968 92.6612 6.18833 92.6597 7.77228V28.6801H83.6972V19.7233C83.7095 19.3232 83.6415 18.9248 83.4969 18.5515C83.3524 18.1783 83.1344 17.8379 82.8558 17.5505C82.5772 17.2632 82.2437 17.0347 81.8751 16.8787C81.5065 16.7226 81.1104 16.6422 80.7101 16.6422C80.3099 16.6422 79.9137 16.7226 79.5451 16.8787C79.1766 17.0347 78.8431 17.2632 78.5645 17.5505C78.2859 17.8379 78.0678 18.1783 77.9233 18.5515C77.7788 18.9248 77.7107 19.3232 77.7231 19.7233V28.6801H35.8501V22.7089C35.8486 21.1249 35.2187 19.6063 34.0987 18.4863C32.9787 17.3662 31.46 16.7363 29.8761 16.7348H23.8991C22.3152 16.7363 20.7965 17.3662 19.6765 18.4863C18.5565 19.6063 17.9266 21.1249 17.9251 22.7089V28.9841C14.5551 29.6765 11.5266 31.5092 9.34981 34.1734C7.173 36.8376 5.98082 40.1705 5.97407 43.6109V73.4928C5.9771 75.8688 6.92234 78.1467 8.60248 79.8269C10.2826 81.507 12.5605 82.4522 14.9366 82.4553H17.9251V88.4294C17.9266 90.0133 18.5565 91.532 19.6765 92.652C20.7965 93.772 22.3152 94.4019 23.8991 94.4034V106.354H8.96253C6.58645 106.357 4.30856 107.303 2.62842 108.983C0.948274 110.663 0.00303556 112.941 0 115.317L0 133.239C0.00151865 134.823 0.631415 136.342 1.75144 137.462C2.87147 138.582 4.39011 139.212 5.97407 139.213H134.484C136.068 139.212 137.586 138.582 138.706 137.462C139.827 136.342 140.456 134.823 140.458 133.239V115.317C140.455 112.941 139.51 110.663 137.83 108.983C136.149 107.303 133.871 106.357 131.495 106.354ZM129.488 69.5607H122.232V47.609H129.485L129.488 69.5607ZM100.094 6.42145H103.492C104.817 6.42145 105.89 7.87553 105.89 9.67091V28.6801H97.6902V9.67091C97.6902 7.87553 98.7628 6.42145 100.094 6.42145ZM29.8732 22.7089V28.6801H23.8991V22.7089H29.8732ZM26.8847 55.5705C25.9981 55.5705 25.1315 55.3076 24.3943 54.8151C23.6571 54.3225 23.0825 53.6224 22.7433 52.8033C22.404 51.9842 22.3152 51.0829 22.4882 50.2133C22.6611 49.3438 23.0881 48.545 23.715 47.9181C24.3419 47.2912 25.1406 46.8643 26.0102 46.6913C26.8798 46.5183 27.7811 46.6071 28.6002 46.9464C29.4193 47.2857 30.1194 47.8602 30.612 48.5974C31.1045 49.3346 31.3674 50.2013 31.3674 51.0879C31.3667 52.2765 30.8941 53.4163 30.0536 54.2568C29.2131 55.0973 28.0734 55.5698 26.8847 55.5705ZM11.9481 73.4928V43.6195C11.9512 41.2435 12.8964 38.9656 14.5766 37.2854C16.2567 35.6053 18.5346 34.6601 20.9107 34.657H23.8991V41.0699C21.7407 41.7124 19.8475 43.0348 18.5013 44.8401C17.155 46.6455 16.4278 48.8373 16.4278 51.0893C16.4278 53.3413 17.155 55.5331 18.5013 57.3385C19.8475 59.1438 21.7407 60.4662 23.8991 61.1087V66.0245C23.8867 66.4245 23.9548 66.823 24.0994 67.1962C24.2439 67.5694 24.4619 67.9098 24.7405 68.1972C25.0191 68.4846 25.3526 68.713 25.7212 68.8691C26.0898 69.0251 26.4859 69.1055 26.8862 69.1055C27.2864 69.1055 27.6826 69.0251 28.0511 68.8691C28.4197 68.713 28.7532 68.4846 29.0318 68.1972C29.3104 67.9098 29.5284 67.5694 29.673 67.1962C29.8175 66.823 29.8856 66.4245 29.8732 66.0245V61.1087C32.0316 60.4662 33.9248 59.1438 35.2711 57.3385C36.6173 55.5331 37.3445 53.3413 37.3445 51.0893C37.3445 48.8373 36.6173 46.6455 35.2711 44.8401C33.9248 43.0348 32.0316 41.7124 29.8732 41.0699V34.6599H107.596C109.972 34.6622 112.25 35.6068 113.93 37.2865C115.61 38.9661 116.556 41.2437 116.559 43.6195V106.354H71.1525V79.4668C71.1502 77.091 70.2056 74.8131 68.5259 73.1329C66.8462 71.4526 64.5686 70.5073 62.1928 70.5043H44.8098C44.0174 70.505 43.2578 70.8201 42.6975 71.3804C42.1372 71.9407 41.8221 72.7004 41.8213 73.4928C41.8206 74.2846 41.5059 75.0439 40.9462 75.6041C40.3865 76.1643 39.6276 76.4797 38.8357 76.4812H14.9366C14.1445 76.4797 13.3852 76.1644 12.8251 75.6042C12.265 75.0441 11.9496 74.2849 11.9481 73.4928ZM29.8732 82.4553V88.4294H23.8991V82.4553H29.8732ZM29.8732 94.4034C31.4577 94.4027 32.977 93.7731 34.0977 92.653C35.2183 91.5329 35.8486 90.0138 35.8501 88.4294V82.4553H38.8386C40.6913 82.4531 42.4979 81.8778 44.0106 80.8082C45.5233 79.7386 46.668 78.2272 47.2878 76.4812H62.2014C62.993 76.482 63.752 76.7968 64.3117 77.3565C64.8715 77.9163 65.1862 78.6752 65.187 79.4668V106.354H29.8732V94.4034ZM5.97407 133.239V124.391H13.4309C14.2235 124.391 14.9836 124.076 15.5441 123.516C16.1045 122.956 16.4194 122.195 16.4194 121.403C16.4194 120.61 16.1045 119.85 15.5441 119.29C14.9836 118.729 14.2235 118.414 13.4309 118.414H5.97407V115.317C5.97483 114.525 6.28992 113.765 6.85021 113.205C7.41049 112.644 8.17017 112.329 8.96253 112.328H131.495C132.288 112.329 133.047 112.644 133.608 113.205C134.168 113.765 134.483 114.525 134.484 115.317V118.414H40.3271C39.5345 118.414 38.7744 118.729 38.2139 119.29C37.6535 119.85 37.3386 120.61 37.3386 121.403C37.3386 122.195 37.6535 122.956 38.2139 123.516C38.7744 124.076 39.5345 124.391 40.3271 124.391H134.484V133.239H5.97407Z" fill="#2B6777"/>
<path d="M97.6615 66.8246C94.6772 66.8246 91.76 67.7095 89.2787 69.3675C86.7974 71.0254 84.8635 73.3819 83.7214 76.139C82.5794 78.8961 82.2806 81.9299 82.8628 84.8568C83.445 87.7837 84.8821 90.4723 86.9922 92.5825C89.1024 94.6926 91.7909 96.1297 94.7178 96.7119C97.6447 97.2941 100.679 96.9953 103.436 95.8533C106.193 94.7112 108.549 92.7773 110.207 90.296C111.865 87.8147 112.75 84.8974 112.75 81.9132C112.746 77.9128 111.154 74.0776 108.326 71.249C105.497 68.4203 101.662 66.8291 97.6615 66.8246ZM97.6615 91.5153C95.7627 91.5153 93.9066 90.9524 92.3277 89.8976C90.7489 88.8429 89.5181 87.3438 88.7911 85.5897C88.0641 83.8357 87.8735 81.9055 88.2433 80.0431C88.6131 78.1807 89.5267 76.4697 90.8687 75.1265C92.2108 73.7833 93.9209 72.8681 95.7829 72.4966C97.645 72.1252 99.5754 72.3141 101.33 73.0395C103.085 73.765 104.585 74.9944 105.641 76.5723C106.697 78.1502 107.262 80.0058 107.264 81.9046C107.261 84.4503 106.248 86.8909 104.448 88.691C102.648 90.491 100.207 91.5037 97.6615 91.5067V91.5153Z" fill="#2B6777"/>
<path d="M74.0692 53.1012H83.0461C83.6153 54.7043 84.6664 56.092 86.0553 57.0743C87.4442 58.0565 89.1029 58.5852 90.804 58.5877H104.522C106.678 58.5474 108.732 57.6627 110.242 56.1237C111.753 54.5847 112.599 52.5144 112.599 50.3579C112.599 48.2015 111.753 46.1312 110.242 44.5922C108.732 43.0532 106.678 42.1684 104.522 42.1282H90.804C89.1034 42.1294 87.4448 42.6569 86.0558 43.6382C84.6668 44.6195 83.6155 46.0065 83.0461 47.6089H74.0692C73.357 47.632 72.6817 47.9311 72.186 48.443C71.6903 48.955 71.4132 49.6396 71.4132 50.3522C71.4132 51.0648 71.6903 51.7494 72.186 52.2614C72.6817 52.7733 73.357 53.0724 74.0692 53.0954V53.1012ZM90.804 47.6089H104.522C105.234 47.632 105.909 47.9311 106.405 48.443C106.901 48.955 107.178 49.6396 107.178 50.3522C107.178 51.0648 106.901 51.7494 106.405 52.2614C105.909 52.7733 105.234 53.0724 104.522 53.0954H90.804C90.4363 53.1073 90.07 53.0452 89.7267 52.9127C89.3835 52.7802 89.0705 52.58 88.8061 52.3241C88.5418 52.0682 88.3317 51.7617 88.1881 51.423C88.0446 51.0842 87.9706 50.7201 87.9706 50.3522C87.9706 49.9843 88.0446 49.6201 88.1881 49.2814C88.3317 48.9426 88.5418 48.6362 88.8061 48.3803C89.0705 48.1244 89.3835 47.9242 89.7267 47.7917C90.07 47.6592 90.4363 47.5971 90.804 47.6089Z" fill="#2B6777"/>
<path d="M97.6615 79.1571C97.2938 79.1452 96.9275 79.2073 96.5842 79.3399C96.241 79.4724 95.928 79.6725 95.6636 79.9284C95.3993 80.1843 95.1892 80.4908 95.0456 80.8295C94.9021 81.1683 94.8281 81.5324 94.8281 81.9003C94.8281 82.2682 94.9021 82.6324 95.0456 82.9711C95.1892 83.3099 95.3993 83.6163 95.6636 83.8722C95.928 84.1281 96.241 84.3283 96.5842 84.4608C96.9275 84.5933 97.2938 84.6555 97.6615 84.6436C98.3737 84.6206 99.0491 84.3214 99.5447 83.8095C100.04 83.2976 100.318 82.6129 100.318 81.9003C100.318 81.1878 100.04 80.5031 99.5447 79.9912C99.0491 79.4792 98.3737 79.1801 97.6615 79.1571Z" fill="#2B6777"/>
<path d="M26.8847 118.414C26.2936 118.414 25.7159 118.59 25.2244 118.918C24.733 119.246 24.3499 119.713 24.1237 120.259C23.8975 120.805 23.8384 121.406 23.9537 121.986C24.069 122.566 24.3536 123.098 24.7715 123.516C25.1895 123.934 25.722 124.219 26.3017 124.334C26.8814 124.449 27.4823 124.39 28.0283 124.164C28.5744 123.938 29.0411 123.555 29.3695 123.063C29.6979 122.572 29.8732 121.994 29.8732 121.403C29.8732 120.61 29.5583 119.85 28.9979 119.29C28.4374 118.729 27.6773 118.414 26.8847 118.414Z" fill="#2B6777"/>
</svg>
