<svg width="922" height="925" viewBox="0 0 922 925" fill="none" xmlns="http://www.w3.org/2000/svg">
<g filter="url(#filter0_dd)">
<g clip-path="url(#clip0)">
<path d="M96.6318 899.114C85.5472 899.095 74.6211 896.471 64.7283 891.454C54.8355 886.437 46.2509 879.165 39.662 870.22C28.6612 855.229 23.9771 836.498 26.6212 818.071C29.2653 799.645 39.0254 783.001 53.794 771.733C45.1362 765.158 38.1145 756.66 33.2799 746.904C28.4453 737.148 25.9292 726.401 25.9292 715.506C25.9292 704.611 28.4453 693.863 33.2799 684.108C38.1145 674.352 45.1362 665.853 53.794 659.278C42.0321 650.288 33.377 637.822 29.0476 623.635C24.7182 609.449 24.9328 594.257 29.661 580.199C34.3893 566.142 43.393 553.926 55.4041 545.274C67.4152 536.622 81.8285 531.968 96.6141 531.969H194.002V442.345L163.388 473.065C160.595 475.866 156.808 477.44 152.86 477.44C148.911 477.44 145.124 475.866 142.331 473.065L30.2995 360.628C27.5164 357.821 25.954 354.022 25.954 350.063C25.954 346.103 27.5164 342.305 30.2995 339.498L170.383 198.929C172.523 196.78 175.266 195.339 178.244 194.799L332.372 166.703C334.518 166.27 336.735 166.334 338.853 166.89C340.972 167.446 342.936 168.479 344.596 169.912C346.261 171.318 347.598 173.074 348.514 175.056C349.43 177.037 349.901 179.196 349.896 181.38C349.928 185.478 350.271 189.566 350.92 193.612L446.135 169.717V153.267C446.172 149.284 447.777 145.478 450.6 142.679C453.423 139.88 457.234 138.314 461.203 138.324C471.908 138.345 482.2 134.177 489.891 126.704C497.582 119.232 502.067 109.045 502.391 98.3073C502.715 87.5698 498.854 77.1286 491.628 69.2026C484.402 61.2765 474.381 56.4904 463.694 55.8613C462.793 55.8613 461.927 55.7727 461.009 55.7727C451.862 55.7601 442.972 58.8118 435.75 64.4441C428.527 70.0764 423.385 77.9669 421.139 86.8644C420.039 90.5763 417.547 93.715 414.187 95.6191C410.827 97.5232 406.861 98.0441 403.126 97.072C399.39 96.0999 396.177 93.7107 394.163 90.4078C392.148 87.105 391.49 83.1464 392.327 79.3663C394.867 69.4202 399.521 60.1432 405.97 52.1721C412.419 44.201 420.511 37.7245 429.69 33.1871C438.868 28.6497 448.917 26.1589 459.145 25.8856C469.373 25.6123 479.539 27.5629 488.946 31.6037C498.352 35.6445 506.776 41.6797 513.639 49.2951C520.501 56.9105 525.641 65.9258 528.704 75.7222C531.768 85.5186 532.683 95.8642 531.386 106.049C530.09 116.233 526.613 126.016 521.194 134.725C516.187 142.841 509.591 149.853 501.806 155.337C494.021 160.822 485.208 164.664 475.9 166.632V169.717L571.168 193.594C571.817 189.549 572.16 185.46 572.193 181.363C572.207 177.409 573.778 173.62 576.565 170.824C579.351 168.028 583.126 166.451 587.067 166.437C587.968 166.431 588.867 166.514 589.752 166.685L743.826 194.781C746.805 195.321 749.548 196.763 751.687 198.912L891.771 339.48C894.563 342.283 896.131 346.083 896.131 350.045C896.131 354.007 894.563 357.808 891.771 360.61L779.704 473.047C776.911 475.848 773.124 477.422 769.176 477.422C765.227 477.422 761.44 475.848 758.647 473.047L728.069 442.345V772.62H727.91C727.727 776.251 726.233 779.692 723.706 782.298L611.639 894.753C610.25 896.151 608.597 897.256 606.777 898.005C604.957 898.754 603.007 899.131 601.04 899.114H96.6318ZM586.201 869.245V775.793C586.206 770.754 588.202 765.924 591.753 762.361C595.303 758.798 600.117 756.795 605.138 756.79H698.268V412.459L670.499 384.611C668.966 383.261 667.726 381.609 666.855 379.758C665.985 377.907 665.503 375.896 665.439 373.851C665.375 371.805 665.73 369.768 666.483 367.866C667.236 365.964 668.37 364.237 669.815 362.793C671.26 361.348 672.986 360.217 674.885 359.47C676.783 358.723 678.815 358.375 680.853 358.447C682.892 358.52 684.893 359.013 686.734 359.894C688.575 360.775 690.216 362.026 691.555 363.57L769.176 441.459L860.186 350.151L733.881 223.445L600.563 199.053C590.794 260.67 530.962 307.024 461.009 307.024C391.055 307.024 331.206 260.67 321.455 199.053L188.101 223.356L61.8493 350.063L152.86 441.37L230.48 363.57C231.868 362.17 233.52 361.062 235.34 360.31C237.16 359.558 239.111 359.178 241.079 359.192V359.192C244.03 359.178 246.918 360.045 249.377 361.682C251.836 363.318 253.756 365.651 254.891 368.384C256.027 371.117 256.328 374.127 255.756 377.032C255.183 379.937 253.764 382.606 251.678 384.7L223.908 412.548V531.969H405.258C416.34 531.988 427.264 534.611 437.153 539.629C447.043 544.646 455.625 551.918 462.21 560.863C473.211 575.853 477.895 594.584 475.251 613.011C472.607 631.438 462.847 648.082 448.078 659.349C456.733 665.926 463.751 674.426 468.584 684.181C473.416 693.937 475.931 704.683 475.931 715.577C475.931 726.471 473.416 737.217 468.584 746.972C463.751 756.728 456.733 765.227 448.078 771.804L448.661 772.265C463.095 783.462 472.604 799.87 475.164 817.996C477.724 836.122 473.134 854.535 462.369 869.316L586.201 869.245ZM96.8791 786.676C91.2423 786.696 85.6693 787.875 80.5043 790.14C75.3392 792.406 70.6916 795.709 66.8485 799.847C62.9701 803.995 59.9962 808.908 58.1165 814.274C56.2368 819.639 55.4926 825.339 55.9315 831.01C57.4154 851.732 76.5996 869.245 97.8153 869.245H404.127C425.325 869.245 444.527 851.732 446.011 831.01C446.449 825.341 445.706 819.642 443.83 814.277C441.953 808.912 438.984 803.998 435.112 799.847C431.267 795.711 426.62 792.408 421.455 790.143C416.29 787.878 410.718 786.698 405.081 786.676H96.8791ZM616.037 848.115L677.264 786.676H615.984L616.037 848.115ZM97.7447 674.222C76.5466 674.222 57.327 691.735 55.8432 712.457C55.4043 718.127 56.1484 723.827 58.0282 729.193C59.9079 734.559 62.8818 739.472 66.7602 743.62C70.6033 747.757 75.2509 751.061 80.4159 753.326C85.581 755.591 91.154 756.77 96.7908 756.79H404.993C410.629 756.768 416.202 755.588 421.366 753.323C426.531 751.058 431.179 747.756 435.023 743.62C438.9 739.471 441.871 734.557 443.748 729.191C445.624 723.826 446.365 718.126 445.923 712.457C444.439 691.735 425.255 674.222 404.039 674.222H97.7447ZM97.7447 561.784C76.5466 561.784 57.327 579.28 55.8432 600.002C55.3894 605.68 56.1213 611.391 57.992 616.769C59.8626 622.147 62.8309 627.074 66.7072 631.236C70.5503 635.373 75.1979 638.677 80.3629 640.942C85.528 643.207 91.101 644.386 96.7378 644.406H404.993C410.629 644.384 416.202 643.204 421.366 640.939C426.531 638.674 431.179 635.372 435.023 631.236C438.9 627.084 441.871 622.167 443.748 616.798C445.625 611.429 446.365 605.727 445.923 600.055C444.439 579.333 425.255 561.838 404.039 561.838L97.7447 561.784ZM461.044 277.137C462.139 277.137 463.235 277.137 464.312 277.137C483.866 277.084 503.076 271.979 520.093 262.314C537.11 252.65 551.36 238.75 561.47 221.956L461.026 196.767L360.512 221.991C370.623 238.786 384.873 252.685 401.889 262.35C418.906 272.015 438.117 277.12 457.67 277.173C458.748 277.173 459.843 277.173 460.938 277.173L461.044 277.137Z" fill="#F9F9F9"/>
<path d="M461.009 26.7728C478.368 26.7704 495.11 33.2366 507.987 44.9176C520.865 56.5986 528.961 72.662 530.706 89.993C532.451 107.324 527.72 124.688 517.43 138.717C507.141 152.746 492.026 162.442 475.018 165.923V170.355L571.893 194.64C572.64 190.235 573.036 185.778 573.076 181.31C573.074 180.471 573.151 179.634 573.306 178.81C573.893 175.575 575.591 172.649 578.105 170.541C580.619 168.433 583.79 167.275 587.067 167.271C587.914 167.269 588.76 167.346 589.593 167.501L743.668 195.615C746.465 196.143 749.035 197.516 751.034 199.55L891.118 340.119C893.738 342.757 895.209 346.329 895.209 350.054C895.209 353.779 893.738 357.351 891.118 359.99L779.051 472.445C776.424 475.078 772.863 476.558 769.149 476.558C765.436 476.558 761.875 475.078 759.248 472.445L727.133 440.218V771.698H726.992C727.016 773.537 726.677 775.362 725.995 777.069C725.313 778.776 724.301 780.33 723.017 781.642L610.985 894.115C609.688 895.421 608.146 896.457 606.448 897.163C604.751 897.868 602.931 898.23 601.093 898.228H96.6322C81.9201 898.235 67.5818 893.578 55.6641 884.922C43.7463 876.266 34.8584 864.053 30.2689 850.027C25.6795 836.001 25.6232 820.878 30.1082 806.818C34.5931 792.758 43.3899 780.479 55.243 771.734C46.4208 765.272 39.2437 756.812 34.2957 747.041C29.3478 737.271 26.7689 726.466 26.7689 715.506C26.7689 704.546 29.3478 693.741 34.2957 683.971C39.2437 674.2 46.4208 665.74 55.243 659.279C43.3912 650.534 34.5949 638.257 30.1095 624.198C25.6242 610.14 25.679 595.019 30.2662 580.993C34.8534 566.968 43.7385 554.755 55.6534 546.098C67.5683 537.44 81.904 532.781 96.6145 532.784H194.885V440.218L162.788 472.445C160.161 475.078 156.6 476.558 152.887 476.558C149.173 476.558 145.612 475.078 142.985 472.445L30.8828 360.025C28.2626 357.387 26.7913 353.814 26.7913 350.09C26.7913 346.365 28.2626 342.792 30.8828 340.154L170.967 199.585C172.984 197.571 175.567 196.223 178.368 195.721L332.372 167.572C333.233 167.396 334.109 167.307 334.987 167.306C338.225 167.315 341.355 168.477 343.819 170.585C345.395 171.905 346.663 173.556 347.533 175.421C348.403 177.286 348.854 179.321 348.854 181.381C348.894 185.848 349.29 190.306 350.037 194.711L447.018 170.355V153.267C447.051 149.527 448.554 145.952 451.201 143.319C453.848 140.687 457.424 139.21 461.15 139.21C472.004 139.104 482.396 134.787 490.15 127.165C497.903 119.543 502.417 109.206 502.746 98.3187C503.074 87.4318 499.193 76.8395 491.913 68.7601C484.634 60.6807 474.522 55.7409 463.694 54.9751C462.776 54.9751 461.928 54.8865 460.974 54.8865C451.631 54.8843 442.554 58.0062 435.177 63.7588C427.8 69.5113 422.543 77.5667 420.238 86.6518C419.301 90.26 416.974 93.347 413.769 95.2335C410.564 97.1201 406.743 97.6517 403.147 96.7114C399.552 95.7712 396.475 93.4361 394.595 90.2198C392.715 87.0035 392.185 83.1696 393.122 79.5613C397.001 64.4535 405.776 51.0684 418.065 41.5122C430.355 31.9559 445.462 26.7709 461.009 26.7728V26.7728ZM457.794 278.059C458.889 278.059 459.985 278.059 461.098 278.059C462.21 278.059 463.288 278.059 464.383 278.059C484.307 278.058 503.885 272.831 521.175 262.896C538.465 252.962 552.868 238.665 562.954 221.424L461.027 195.863L359.153 221.424C369.244 238.677 383.657 252.981 400.961 262.916C418.265 272.851 437.858 278.072 457.794 278.059V278.059ZM461.062 306.137C390.155 306.137 331.383 258.95 322.215 198.008L187.678 222.541L60.5955 350.063L152.86 442.629L231.099 364.12C232.397 362.812 233.94 361.773 235.639 361.065C237.338 360.357 239.16 359.992 241 359.992C242.84 359.992 244.662 360.357 246.361 361.065C248.06 361.773 249.603 362.812 250.901 364.12V364.12C252.203 365.424 253.235 366.972 253.94 368.677C254.645 370.382 255.007 372.21 255.007 374.055C255.007 375.901 254.645 377.728 253.94 379.433C253.235 381.138 252.203 382.687 250.901 383.991L222.849 412.105V532.784H405.258C419.97 532.777 434.309 537.434 446.226 546.09C458.144 554.746 467.032 566.959 471.622 580.985C476.211 595.011 476.267 610.134 471.782 624.194C467.297 638.254 458.501 650.533 446.648 659.279C455.46 665.747 462.627 674.209 467.569 683.979C472.51 693.749 475.085 704.55 475.085 715.506C475.085 726.462 472.51 737.263 467.569 747.033C462.627 756.803 455.46 765.265 446.648 771.734L448.184 772.886C455.367 778.449 461.387 785.377 465.901 793.275C470.415 801.173 473.334 809.886 474.492 818.917C475.65 827.947 475.024 837.117 472.65 845.905C470.276 854.693 466.201 862.925 460.656 870.132H587.085V775.793C587.089 770.99 588.993 766.384 592.378 762.988C595.762 759.591 600.352 757.681 605.138 757.677H699.152V412.105L671.135 383.991C669.835 382.684 668.804 381.133 668.101 379.426C667.398 377.719 667.037 375.89 667.039 374.043C667.041 372.196 667.405 370.368 668.11 368.662C668.816 366.956 669.85 365.407 671.153 364.102C673.783 361.467 677.349 359.989 681.066 359.992C682.907 359.993 684.729 360.359 686.429 361.067C688.128 361.775 689.673 362.813 690.973 364.12L769.211 442.629L861.476 350.063L734.287 222.541L599.839 198.008C590.671 258.95 531.899 306.137 460.992 306.137H461.062ZM96.8265 645.239H404.993C410.773 645.238 416.491 644.041 421.789 641.721C427.087 639.402 431.851 636.011 435.784 631.761C439.716 627.51 442.733 622.491 444.645 617.017C446.556 611.544 447.322 605.733 446.895 599.949C445.358 578.429 425.697 560.951 404.128 560.951H97.6921C76.1937 560.951 56.4618 578.483 54.9073 599.949C54.4823 605.734 55.2507 611.545 57.1645 617.019C59.0784 622.492 62.0966 627.511 66.0306 631.761C69.9646 636.012 74.7298 639.402 80.0286 641.721C85.3273 644.04 91.0457 645.238 96.8265 645.239V645.239ZM96.8265 757.677H404.993C410.773 757.675 416.491 756.478 421.789 754.159C427.087 751.839 431.851 748.448 435.784 744.198C439.716 739.947 442.733 734.928 444.645 729.455C446.556 723.981 447.322 718.17 446.895 712.386C445.358 690.867 425.697 673.389 404.128 673.389H97.6921C76.1937 673.389 56.4618 690.92 54.9073 712.386C54.4823 718.171 55.2507 723.982 57.1645 729.456C59.0784 734.929 62.0966 739.948 66.0306 744.199C69.9646 748.449 74.7298 751.84 80.0286 754.159C85.3273 756.478 91.0457 757.675 96.8265 757.677V757.677ZM615.101 850.243L679.332 785.79H615.101V850.243V850.243ZM97.6744 870.132H404.128C425.626 870.132 445.358 852.6 446.895 831.134C447.322 825.35 446.556 819.539 444.645 814.066C442.733 808.592 439.716 803.573 435.784 799.322C431.851 795.072 427.087 791.681 421.789 789.362C416.491 787.042 410.773 785.845 404.993 785.844H96.8265C91.0449 785.842 85.3253 787.038 80.0253 789.356C74.7254 791.674 69.9591 795.065 66.0246 799.316C62.09 803.567 59.072 808.587 57.1591 814.061C55.2462 819.536 54.4796 825.348 54.9073 831.134C56.4618 852.654 76.1937 870.132 97.6744 870.132ZM461.009 25.0001C458.056 24.9942 455.106 25.1777 452.177 25.5497C437.835 27.27 424.349 33.3116 413.497 42.8778C402.646 52.444 394.939 65.0856 391.391 79.1359C390.346 83.2096 390.957 87.5329 393.089 91.1547C395.221 94.7765 398.699 97.4002 402.759 98.4486C406.818 99.497 411.127 98.8842 414.736 96.745C418.345 94.6058 420.96 91.1155 422.005 87.0418C424.204 78.3349 429.238 70.614 436.307 65.1037C443.376 59.5933 452.076 56.6089 461.027 56.6237C461.892 56.6237 462.793 56.6237 463.641 56.6237C473.28 57.2782 482.366 61.3803 489.247 68.1848C496.129 74.9894 500.35 84.045 501.144 93.7068C501.59 99.2522 500.888 104.83 499.084 110.091C497.28 115.351 494.412 120.181 490.661 124.277C486.909 128.373 482.354 131.647 477.282 133.893C472.21 136.139 466.73 137.31 461.186 137.331C456.991 137.331 452.965 138.995 449.987 141.96C447.009 144.925 445.32 148.951 445.287 153.16V168.919L351.663 192.406C351.118 188.714 350.829 184.989 350.797 181.256C350.795 178.939 350.286 176.651 349.306 174.553C348.327 172.455 346.9 170.598 345.126 169.114C342.332 166.739 338.79 165.433 335.128 165.427C334.137 165.43 333.149 165.531 332.178 165.728L178.05 193.931C174.891 194.503 171.982 196.031 169.712 198.309L29.6463 338.86C26.6917 341.831 25.0323 345.857 25.0323 350.054C25.0323 354.251 26.6917 358.277 29.6463 361.248L141.696 473.703C144.656 476.668 148.668 478.333 152.851 478.333C157.034 478.333 161.046 476.668 164.007 473.703L193.119 444.49V531.012H96.6145C81.7362 531.016 67.2287 535.671 55.1084 544.33C42.9881 552.989 33.8571 565.222 28.9847 579.328C24.1122 593.435 23.7403 608.714 27.9207 623.042C32.1011 637.371 40.626 650.036 52.3106 659.279C43.8093 665.96 36.9344 674.494 32.2065 684.236C27.4786 693.977 25.0216 704.671 25.0216 715.506C25.0216 726.342 27.4786 737.035 32.2065 746.777C36.9344 756.518 43.8093 765.053 52.3106 771.734C37.7224 783.278 28.1749 800.059 25.6831 818.533C23.1914 837.008 27.9505 855.732 38.9558 870.752C45.628 879.806 54.3194 887.166 64.3346 892.245C74.3499 897.324 85.4107 899.98 96.6322 900H601.093C603.164 900.009 605.216 899.605 607.129 898.81C609.043 898.016 610.78 896.848 612.24 895.374L724.307 782.919C726.786 780.365 728.34 777.051 728.723 773.506H728.935V444.49L758.1 473.703C761.061 476.668 765.073 478.333 769.255 478.333C773.438 478.333 777.45 476.668 780.411 473.703L892.354 361.248C895.309 358.277 896.968 354.251 896.968 350.054C896.968 345.857 895.309 341.831 892.354 338.86L752.324 198.309C750.049 196.027 747.133 194.499 743.968 193.931L589.911 165.817C588.972 165.654 588.02 165.571 587.067 165.569C583.376 165.568 579.803 166.869 576.971 169.244C574.139 171.619 572.229 174.917 571.575 178.562C571.398 179.491 571.31 180.435 571.31 181.381C571.277 185.107 570.988 188.826 570.444 192.513L476.819 169.043V167.271C486.221 165.148 495.101 161.149 502.93 155.511C510.759 149.873 517.377 142.711 522.389 134.452C527.402 126.193 530.707 117.007 532.107 107.439C533.507 97.872 532.974 88.1198 530.539 78.7637C526.455 63.3764 517.43 49.7695 504.86 40.05C492.29 30.3306 476.878 25.0409 461.009 25.0001V25.0001ZM361.891 222.558L461.027 197.742L560.145 222.558C550.035 238.945 535.931 252.477 519.164 261.877C502.397 271.278 483.519 276.237 464.313 276.287C463.235 276.287 462.157 276.287 461.062 276.287C459.967 276.287 458.889 276.287 457.812 276.287C438.605 276.237 419.728 271.278 402.961 261.877C386.193 252.477 372.089 238.945 361.979 222.558H361.891ZM188.543 224.189L320.696 200.082C330.959 261.68 390.914 307.91 460.992 307.91C531.069 307.91 591.024 261.68 601.287 200.082L733.369 224.189L858.791 350.045L769.035 440.112L692.192 362.861C689.211 360.014 685.239 358.447 681.124 358.497C677.008 358.547 673.075 360.209 670.164 363.128C667.253 366.047 665.594 369.993 665.541 374.122C665.488 378.252 667.045 382.238 669.881 385.232L697.385 412.831V755.904H605.138C599.883 755.909 594.844 758.006 591.128 761.734C587.412 765.463 585.323 770.519 585.318 775.793V868.359H464.136C474.455 853.431 478.696 835.108 475.99 817.144C473.284 799.18 463.835 782.934 449.58 771.734C458.081 765.053 464.956 756.518 469.684 746.777C474.412 737.035 476.869 726.342 476.869 715.506C476.869 704.671 474.412 693.977 469.684 684.236C464.956 674.494 458.081 665.96 449.58 659.279C464.161 647.744 473.703 630.974 476.191 612.512C478.68 594.049 473.92 575.338 462.917 560.331C456.252 551.272 447.565 543.907 437.552 538.825C427.54 533.742 416.479 531.085 405.258 531.065H224.615V412.831L252.12 385.232C253.765 383.813 255.1 382.069 256.043 380.109C256.985 378.149 257.515 376.015 257.599 373.84C257.683 371.665 257.319 369.496 256.53 367.469C255.74 365.442 254.543 363.6 253.013 362.058C251.482 360.516 249.651 359.307 247.634 358.507C245.617 357.707 243.457 357.333 241.289 357.409C239.122 357.484 236.993 358.007 235.036 358.945C233.079 359.883 231.335 361.217 229.915 362.861L152.86 440.13L63.1039 350.063L188.526 224.207L188.543 224.189ZM96.8265 643.467C91.3037 643.451 85.8427 642.3 80.7808 640.083C75.7189 637.867 71.1637 634.632 67.3965 630.58C63.6188 626.51 60.7257 621.696 58.9011 616.445C57.0764 611.193 56.3601 605.618 56.7975 600.073C58.2637 579.794 77.0416 562.671 97.8157 562.671H404.128C424.902 562.671 443.68 579.794 445.128 600.073C445.571 605.618 444.857 611.195 443.032 616.447C441.208 621.7 438.312 626.513 434.529 630.58C430.758 634.637 426.197 637.874 421.129 640.09C416.06 642.307 410.593 643.456 405.064 643.467H96.8265ZM96.8265 755.904C91.3037 755.889 85.8427 754.737 80.7808 752.521C75.7189 750.304 71.1637 747.07 67.3965 743.017C63.6161 738.949 60.7212 734.136 58.8964 728.883C57.0716 723.631 56.3568 718.055 56.7975 712.51C58.2637 692.249 77.0416 675.108 97.8157 675.108H404.128C424.902 675.108 443.68 692.249 445.128 712.51C445.573 718.055 444.861 723.633 443.036 728.886C441.211 734.138 438.313 738.952 434.529 743.017C430.758 747.074 426.197 750.311 421.129 752.528C416.06 754.744 410.593 755.893 405.064 755.904H96.8265ZM616.868 787.563H675.074L616.868 845.971V787.563V787.563ZM97.6744 868.359C76.9003 868.359 58.1224 851.218 56.6738 830.957C56.2375 825.412 56.9544 819.837 58.779 814.586C60.6035 809.334 63.496 804.52 67.2729 800.45C71.0461 796.391 75.6099 793.153 80.6814 790.936C85.7529 788.719 91.2241 787.571 96.7558 787.563H404.993C410.522 787.574 415.99 788.723 421.058 790.939C426.126 793.156 430.687 796.393 434.459 800.45C438.243 804.515 441.14 809.329 442.965 814.581C444.79 819.834 445.503 825.412 445.058 830.957C443.609 851.218 424.831 868.359 404.057 868.359H97.6744Z" fill="#F9F9F9"/>
<path d="M96.8261 618.012C92.8766 618.012 89.0888 616.437 86.2961 613.635C83.5034 610.833 81.9344 607.032 81.9344 603.069C81.9344 599.105 83.5034 595.305 86.2961 592.502C89.0888 589.7 92.8766 588.125 96.8261 588.125H404.993C408.942 588.125 412.73 589.7 415.523 592.502C418.316 595.305 419.885 599.105 419.885 603.069C419.885 607.032 418.316 610.833 415.523 613.635C412.73 616.437 408.942 618.012 404.993 618.012H96.8261Z" fill="#F9F9F9"/>
<path d="M404.993 589.012C406.833 589.012 408.654 589.375 410.354 590.082C412.053 590.788 413.598 591.824 414.898 593.129C416.199 594.434 417.231 595.984 417.935 597.689C418.639 599.395 419.001 601.223 419.001 603.069V603.069C419.001 604.915 418.639 606.743 417.935 608.448C417.231 610.154 416.199 611.703 414.898 613.008C413.598 614.314 412.053 615.349 410.354 616.056C408.654 616.762 406.833 617.126 404.993 617.126H96.826C93.1108 617.126 89.5477 615.645 86.9206 613.008C84.2935 610.372 82.8177 606.797 82.8177 603.069C82.8177 599.341 84.2935 595.765 86.9206 593.129C89.5477 590.493 93.1108 589.012 96.826 589.012H404.993ZM404.993 587.239H96.826C92.6423 587.239 88.6299 588.907 85.6715 591.876C82.7131 594.844 81.0511 598.87 81.0511 603.069C81.0511 607.267 82.7131 611.293 85.6715 614.262C88.6299 617.231 92.6423 618.898 96.826 618.898H404.993C409.177 618.898 413.189 617.231 416.147 614.262C419.106 611.293 420.768 607.267 420.768 603.069C420.768 598.87 419.106 594.844 416.147 591.876C413.189 588.907 409.177 587.239 404.993 587.239Z" fill="#F9F9F9"/>
<path d="M96.8261 730.503C92.8766 730.503 89.0888 728.928 86.2961 726.126C83.5034 723.323 81.9344 719.523 81.9344 715.559C81.9344 711.596 83.5034 707.795 86.2961 704.993C89.0888 702.191 92.8766 700.616 96.8261 700.616H390.985C394.934 700.616 398.722 702.191 401.515 704.993C404.307 707.795 405.876 711.596 405.876 715.559C405.876 719.523 404.307 723.323 401.515 726.126C398.722 728.928 394.934 730.503 390.985 730.503H96.8261Z" fill="#F9F9F9"/>
<path d="M390.985 701.449C394.7 701.449 398.263 702.93 400.89 705.567C403.517 708.203 404.993 711.778 404.993 715.506C404.993 719.234 403.517 722.81 400.89 725.446C398.263 728.082 394.7 729.563 390.985 729.563H96.826C93.1108 729.563 89.5477 728.082 86.9206 725.446C84.2935 722.81 82.8177 719.234 82.8177 715.506C82.8177 711.778 84.2935 708.203 86.9206 705.567C89.5477 702.93 93.1108 701.449 96.826 701.449H390.985ZM390.985 699.677H96.826C92.6423 699.677 88.6299 701.345 85.6715 704.313C82.7131 707.282 81.0511 711.308 81.0511 715.506C81.0511 719.705 82.7131 723.731 85.6715 726.699C88.6299 729.668 92.6423 731.336 96.826 731.336H390.985C395.168 731.336 399.181 729.668 402.139 726.699C405.097 723.731 406.759 719.705 406.759 715.506C406.759 711.308 405.097 707.282 402.139 704.313C399.181 701.345 395.168 699.677 390.985 699.677Z" fill="#F9F9F9"/>
<path d="M96.8261 842.904C92.8766 842.904 89.0888 841.33 86.2961 838.527C83.5034 835.725 81.9344 831.924 81.9344 827.961C81.9344 823.998 83.5034 820.197 86.2961 817.394C89.0888 814.592 92.8766 813.018 96.8261 813.018H390.985C394.934 813.018 398.722 814.592 401.515 817.394C404.307 820.197 405.876 823.998 405.876 827.961C405.876 831.924 404.307 835.725 401.515 838.527C398.722 841.33 394.934 842.904 390.985 842.904H96.8261Z" fill="#F9F9F9"/>
<path d="M390.985 813.904C394.7 813.904 398.263 815.385 400.89 818.021C403.517 820.657 404.993 824.233 404.993 827.961C404.993 831.689 403.517 835.265 400.89 837.901C398.263 840.537 394.7 842.018 390.985 842.018H96.826C93.1169 842.018 89.5592 840.542 86.9331 837.913C84.307 835.285 82.827 831.718 82.8177 827.996V827.996C82.8177 824.268 84.2935 820.693 86.9206 818.057C89.5477 815.421 93.1108 813.94 96.826 813.94H390.985V813.904ZM390.985 812.167H96.826C92.6423 812.167 88.6299 813.835 85.6715 816.803C82.7131 819.772 81.0511 823.798 81.0511 827.996C81.0511 832.195 82.7131 836.221 85.6715 839.19C88.6299 842.158 92.6423 843.826 96.826 843.826H390.985C395.168 843.826 399.181 842.158 402.139 839.19C405.097 836.221 406.759 832.195 406.759 827.996C406.759 823.798 405.097 819.772 402.139 816.803C399.181 813.835 395.168 812.167 390.985 812.167V812.167Z" fill="#F9F9F9"/>
</g>
</g>
<defs>
<filter id="filter0_dd" x="0" y="0" width="922" height="925" filterUnits="userSpaceOnUse" color-interpolation-filters="sRGB">
<feFlood flood-opacity="0" result="BackgroundImageFix"/>
<feColorMatrix in="SourceAlpha" type="matrix" values="0 0 0 0 0 0 0 0 0 0 0 0 0 0 0 0 0 0 127 0"/>
<feOffset dx="10" dy="10"/>
<feGaussianBlur stdDeviation="7.5"/>
<feColorMatrix type="matrix" values="0 0 0 0 0 0 0 0 0 0 0 0 0 0 0 0 0 0 0.1 0"/>
<feBlend mode="normal" in2="BackgroundImageFix" result="effect1_dropShadow"/>
<feColorMatrix in="SourceAlpha" type="matrix" values="0 0 0 0 0 0 0 0 0 0 0 0 0 0 0 0 0 0 127 0"/>
<feOffset dx="-10" dy="-10"/>
<feGaussianBlur stdDeviation="7.5"/>
<feColorMatrix type="matrix" values="0 0 0 0 1 0 0 0 0 1 0 0 0 0 1 0 0 0 1 0"/>
<feBlend mode="normal" in2="effect1_dropShadow" result="effect2_dropShadow"/>
<feBlend mode="normal" in="SourceGraphic" in2="effect2_dropShadow" result="shape"/>
</filter>
<clipPath id="clip0">
<path d="M25 25H897V900H25V25Z" fill="white"/>
</clipPath>
</defs>
</svg>
