<svg width="872" height="924" viewBox="0 0 872 924" fill="none" xmlns="http://www.w3.org/2000/svg">
<g filter="url(#filter0_dd)">
<g clip-path="url(#clip0)">
<path d="M824.341 251.283L446.757 27.385C444.107 25.8199 441.088 24.9946 438.013 24.9946C434.938 24.9946 431.919 25.8199 429.269 27.385L51.6853 251.283C51.3508 251.518 51.0309 251.774 50.7275 252.048C50.3728 252.28 50.0535 252.564 49.7165 252.831C48.2231 254.013 46.9398 255.439 45.9208 257.05C45.9208 257.156 45.7257 257.21 45.6547 257.352V257.477C44.6705 259.217 44.0094 261.123 43.7037 263.101C43.6648 263.608 43.5997 264.113 43.5086 264.614C43.3928 265.106 43.3099 265.605 43.2603 266.109V657.129C43.2622 660.122 44.0399 663.062 45.5171 665.661C46.9942 668.261 49.1199 670.43 51.6853 671.955L429.233 895.853C429.688 896.072 430.156 896.262 430.634 896.423C431.093 896.674 431.574 896.882 432.071 897.046C433.94 897.839 435.948 898.247 437.978 898.247C440.007 898.247 442.015 897.839 443.884 897.046C444.385 896.879 444.872 896.671 445.338 896.423C445.782 896.227 446.261 896.102 446.722 895.853L457.737 889.304L549.188 835.073L579.784 817.008L798.427 687.261L820.048 674.429C823.917 672.138 827.123 668.875 829.35 664.961C831.577 661.047 832.748 656.618 832.748 652.11V266.109C832.753 263.117 831.98 260.176 830.506 257.576C829.031 254.976 826.906 252.807 824.341 251.283V251.283ZM650.271 188.154L306.423 391.976L217.171 339.045L411.904 223.554C412.064 223.554 412.241 223.394 412.401 223.287L561.019 135.223L650.271 188.154ZM289.254 421.894V536.887L200.569 484.294V369.319L289.254 421.894ZM437.995 62.3757L527.247 115.289L394.93 193.76L183.435 319.04L94.1652 266.109L437.995 62.3757ZM798.427 613.347V647.269L575.332 779.633L542.111 799.21L457.772 849.24L455.165 850.789V794.903C455.239 792.595 454.849 790.296 454.02 788.142C453.191 785.988 451.939 784.023 450.338 782.365C448.737 780.706 446.821 779.387 444.702 778.486C442.583 777.585 440.305 777.121 438.004 777.121C435.703 777.121 433.425 777.585 431.307 778.486C429.188 779.387 427.271 780.706 425.67 782.365C424.069 784.023 422.817 785.988 421.988 788.142C421.159 790.296 420.77 792.595 420.844 794.903V850.824L77.5812 647.305V296.312L166.266 348.887V494.047C166.263 497.045 167.04 499.991 168.521 502.595C170.002 505.198 172.135 507.368 174.709 508.89L297.696 581.862C300.343 583.418 303.355 584.241 306.423 584.247C308.677 584.249 310.909 583.806 312.992 582.942C315.075 582.078 316.968 580.811 318.562 579.212C320.157 577.614 321.422 575.716 322.285 573.627C323.148 571.537 323.592 569.298 323.592 567.036V442.166L420.844 499.831V726.025C420.987 730.496 422.858 734.736 426.06 737.848C429.263 740.96 433.546 742.7 438.004 742.7C442.462 742.7 446.745 740.96 449.948 737.848C453.151 734.736 455.021 730.496 455.165 726.025V499.831L766.235 315.391C770.156 313.066 772.995 309.274 774.13 304.848C775.264 300.422 774.6 295.725 772.283 291.791C769.966 287.857 766.187 285.007 761.776 283.869C757.365 282.731 752.685 283.397 748.764 285.722L437.995 469.948L340.176 411.927L684.024 208.087L798.427 275.951V613.347Z" fill="#F9F9F9"/>
</g>
</g>
<defs>
<filter id="filter0_dd" x="-25" y="0" width="922" height="925" filterUnits="userSpaceOnUse" color-interpolation-filters="sRGB">
<feFlood flood-opacity="0" result="BackgroundImageFix"/>
<feColorMatrix in="SourceAlpha" type="matrix" values="0 0 0 0 0 0 0 0 0 0 0 0 0 0 0 0 0 0 127 0"/>
<feOffset dx="10" dy="10"/>
<feGaussianBlur stdDeviation="7.5"/>
<feColorMatrix type="matrix" values="0 0 0 0 0 0 0 0 0 0 0 0 0 0 0 0 0 0 0.1 0"/>
<feBlend mode="normal" in2="BackgroundImageFix" result="effect1_dropShadow"/>
<feColorMatrix in="SourceAlpha" type="matrix" values="0 0 0 0 0 0 0 0 0 0 0 0 0 0 0 0 0 0 127 0"/>
<feOffset dx="-10" dy="-10"/>
<feGaussianBlur stdDeviation="7.5"/>
<feColorMatrix type="matrix" values="0 0 0 0 1 0 0 0 0 1 0 0 0 0 1 0 0 0 1 0"/>
<feBlend mode="normal" in2="effect1_dropShadow" result="effect2_dropShadow"/>
<feBlend mode="normal" in="SourceGraphic" in2="effect2_dropShadow" result="shape"/>
</filter>
<clipPath id="clip0">
<path d="M0 25H872V900H0V25Z" fill="white"/>
</clipPath>
</defs>
</svg>
