<svg width="740" height="654" viewBox="0 0 740 654" fill="none" xmlns="http://www.w3.org/2000/svg">
<g filter="url(#filter0_dd)">
<path d="M667.809 120.235C662.719 118.125 657.117 117.572 651.713 118.647C646.308 119.721 641.344 122.374 637.448 126.27L370.73 392.994C366.82 396.89 364.157 401.859 363.076 407.272C361.996 412.684 362.547 418.295 364.661 423.394C366.775 428.492 370.356 432.847 374.949 435.907C379.542 438.967 384.941 440.593 390.46 440.58H499.707C470.744 484.373 426.454 515.754 375.535 528.56C324.617 541.365 270.751 534.67 224.517 509.788C122.164 454.774 83.829 327.186 138.865 224.842C163.019 179.925 202.662 145.308 250.423 127.426C298.184 109.545 350.814 109.617 398.526 127.628C405.77 130.386 413.77 130.411 421.032 127.701C428.294 124.991 434.321 119.729 437.987 112.9C440.138 108.884 441.406 104.454 441.706 99.9083C442.006 95.3623 441.332 90.8046 439.727 86.5406C438.123 82.2765 435.625 78.4046 432.403 75.1842C429.18 71.9637 425.307 69.4691 421.042 67.8674C294.293 19.8639 148.533 72.0225 82.622 194.596C11.0593 327.685 61.1973 494.491 194.272 566.055C324.05 635.844 484.956 590.428 559.653 465.081L637.413 542.843C641.309 546.752 646.278 549.416 651.69 550.496C657.102 551.577 662.714 551.025 667.812 548.911C672.91 546.797 677.265 543.217 680.325 538.623C683.385 534.03 685.011 528.631 684.998 523.112V145.908C684.986 140.41 683.348 135.038 680.289 130.47C677.23 125.901 672.888 122.34 667.809 120.235ZM629.289 455.923L566.361 392.994C563.767 390.409 560.69 388.362 557.304 386.968C553.919 385.573 550.292 384.861 546.631 384.87H457.67L629.289 213.213V455.923Z" fill="#F9F9F9"/>
</g>
<defs>
<filter id="filter0_dd" x="0" y="-43" width="740" height="740" filterUnits="userSpaceOnUse" color-interpolation-filters="sRGB">
<feFlood flood-opacity="0" result="BackgroundImageFix"/>
<feColorMatrix in="SourceAlpha" type="matrix" values="0 0 0 0 0 0 0 0 0 0 0 0 0 0 0 0 0 0 127 0"/>
<feOffset dx="-10" dy="-10"/>
<feGaussianBlur stdDeviation="20"/>
<feColorMatrix type="matrix" values="0 0 0 0 1 0 0 0 0 1 0 0 0 0 1 0 0 0 1 0"/>
<feBlend mode="normal" in2="BackgroundImageFix" result="effect1_dropShadow"/>
<feColorMatrix in="SourceAlpha" type="matrix" values="0 0 0 0 0 0 0 0 0 0 0 0 0 0 0 0 0 0 127 0"/>
<feOffset dx="15" dy="15"/>
<feGaussianBlur stdDeviation="20"/>
<feColorMatrix type="matrix" values="0 0 0 0 0 0 0 0 0 0 0 0 0 0 0 0 0 0 0.1 0"/>
<feBlend mode="normal" in2="effect1_dropShadow" result="effect2_dropShadow"/>
<feBlend mode="normal" in="SourceGraphic" in2="effect2_dropShadow" result="shape"/>
</filter>
</defs>
</svg>
