<svg width="250" height="250" viewBox="0 0 250 250" fill="none" xmlns="http://www.w3.org/2000/svg">
<path d="M243.232 44.5807C241.228 43.75 239.023 43.5324 236.895 43.9553C234.767 44.3783 232.813 45.4228 231.279 46.9568L126.272 151.966C124.732 153.5 123.684 155.456 123.258 157.587C122.833 159.718 123.05 161.927 123.882 163.934C124.715 165.942 126.124 167.656 127.933 168.861C129.741 170.066 131.867 170.706 134.039 170.701H177.05C165.647 187.942 148.21 200.297 128.164 205.339C108.117 210.38 86.9098 207.744 68.7076 197.948C28.4109 176.289 13.3185 126.058 34.9861 85.7647C44.4955 68.0807 60.103 54.4518 78.9066 47.412C97.7103 40.3721 118.431 40.4003 137.215 47.4914C140.067 48.577 143.217 48.5872 146.076 47.5201C148.935 46.453 151.307 44.3816 152.751 41.6928C153.598 40.1117 154.097 38.3678 154.215 36.5781C154.333 34.7883 154.068 32.9939 153.436 31.3152C152.804 29.6364 151.821 28.112 150.552 26.8442C149.284 25.5763 147.759 24.5941 146.079 23.9636C96.1782 5.06453 38.7924 25.5994 12.8433 73.8568C-15.331 126.254 4.40839 191.926 56.8 220.1C107.894 247.576 171.243 229.696 200.651 180.347L231.265 210.962C232.799 212.501 234.755 213.55 236.886 213.975C239.017 214.4 241.226 214.183 243.233 213.351C245.24 212.519 246.955 211.109 248.159 209.3C249.364 207.492 250.004 205.367 249.999 203.194V54.6882C249.994 52.5236 249.349 50.4089 248.145 48.6102C246.941 46.8116 245.231 45.4095 243.232 44.5807ZM228.066 176.741L203.292 151.966C202.271 150.949 201.059 150.142 199.726 149.594C198.393 149.045 196.965 148.764 195.524 148.768H160.5L228.066 81.1861V176.741Z" fill="url(#paint0_linear)"/>
<defs>
<linearGradient id="paint0_linear" x1="307.549" y1="270.076" x2="32.0155" y2="31.5593" gradientUnits="userSpaceOnUse">
<stop stop-color="#EC791C"/>
<stop offset="1" stop-color="#F49A32"/>
</linearGradient>
</defs>
</svg>
