<svg width="299" height="779" viewBox="0 0 299 779" fill="none" xmlns="http://www.w3.org/2000/svg">
<g clip-path="url(#clip0)">
<path d="M277.322 58.3545L295.757 0C297.41 0.909987 297.372 0.961254 299 1.90969L283.078 62.0329C282.745 61.4818 282.424 61.2255 282.181 61.4049C281.001 62.2636 280.527 67.134 280.527 67.134L281.245 68.9668L281.014 69.8383C280.45 69.6845 279.732 69.582 279.63 70.0049C279.63 70.2228 279.502 70.7098 279.386 71.2866C276.669 70.9533 273.989 70.7867 273.989 70.7867L277.322 58.3545Z" fill="#002F3F"/>
<path d="M283.078 62.033C284.36 64.1349 286.027 70.5304 284.976 72.9272C285.181 72.2863 283.04 71.7993 280.591 71.4404L281.014 69.8383C281.231 69.8849 281.446 69.9448 281.655 70.0178L281.245 68.9668L283.078 62.033Z" fill="#F58968"/>
<path d="M280.591 71.4404C283.039 71.7993 285.18 72.2863 284.975 72.9272L278.565 80.1302L278.63 78.951L280.591 71.4404Z" fill="#F58968"/>
<path d="M282.181 61.4049C282.425 61.2254 282.745 61.4818 283.078 62.0329L281.245 68.9667L280.527 67.1339C280.527 67.1339 281.002 62.2636 282.181 61.4049Z" fill="#F58968"/>
<path d="M281.014 69.8384L280.591 71.4405L279.386 71.2739C279.502 70.7099 279.591 70.2229 279.63 69.9922C279.681 69.5821 280.45 69.6846 281.014 69.8384Z" fill="#F58968"/>
<path d="M280.591 71.4403L278.604 78.9509L278.848 73.9267C278.848 73.9267 279.155 72.44 279.386 71.2737L280.591 71.4403Z" fill="#F58968"/>
<path d="M279.386 71.2737C279.155 72.44 278.848 73.9267 278.848 73.9267L278.604 78.9509L276.809 85.7053L270.118 85.026L273.964 70.7097C273.964 70.7097 276.668 70.9404 279.386 71.2737Z" fill="#002F3F"/>
<path d="M276.809 85.7053L278.604 78.9509L278.54 80.1301L284.95 72.9271C284.475 74.3625 278.54 89.1787 276.591 90.6013C274.643 92.024 265.362 100.688 265.362 100.688L264.4 105.815L254.145 95.9074L258.606 86.5769C258.606 86.5769 260.785 75.5545 262.669 72.9527L266.297 69.3512L268.861 58.3929C270.041 54.6376 272.707 60.1872 272.976 61.4305C273.479 64.5099 273.792 67.6175 273.912 70.7354L270.066 85.0517L276.809 85.7053Z" fill="#F58968"/>
<path d="M264.451 105.789L268.297 109.506C268.297 109.506 238.108 179.011 228.044 193.109C219.148 205.58 194.586 228.035 179.805 242.12L181.959 224.728C201.7 201.863 203.405 191.648 160.922 185.265C179.497 175.961 203.482 161.17 203.482 161.17L251.696 93.4209L254.26 95.8817L251.209 102.29C255.217 105.776 259.196 109.292 263.144 112.838L264.451 105.789Z" fill="#19627C"/>
<path d="M264.452 105.789L263.17 112.8C259.221 109.263 255.243 105.747 251.235 102.252L254.286 95.8435L264.452 105.789Z" fill="#19627C"/>
<path d="M160.909 185.266C203.393 191.674 201.688 201.863 181.946 224.728L179.792 242.121C176.908 244.876 174.382 247.311 172.434 249.285C160.089 229.778 162.076 210.13 150.936 189.905C153.91 188.662 157.307 187.124 160.909 185.266Z" fill="#19627C"/>
<path d="M179.792 242.121L168.69 331.543L164.011 319.546L156.576 300.488C156.576 300.488 154.691 277.251 156.166 265.947C157.345 256.886 140.039 215.244 130.527 195.583C133.257 192.952 135.125 189.556 135.885 185.842L136.578 182.472C145.936 183.343 154.012 184.279 160.935 185.317C157.332 187.124 153.935 188.713 150.961 189.957C162.101 210.181 160.114 229.829 172.459 249.336C174.344 247.363 176.908 244.876 179.792 242.121Z" fill="#19627C"/>
<path d="M172.357 407.354C173.382 416.851 174.075 436.55 174.075 455.352C174.075 470.886 173.6 485.805 172.447 493.802C166.037 540.16 159.935 606.051 156.538 613.664C155.435 616.112 153.897 624.02 152.153 635.004C150.41 645.988 148.436 660.061 146.5 674.813C142.398 705.945 138.398 740.178 136.693 755.058H121.9C120.707 728.489 112.644 704.56 111.888 678.901C111.747 677.552 111.678 676.196 111.683 674.839C111.683 669.622 111.888 664.329 112.311 658.907C112.426 657.51 112.541 656.062 112.657 654.639C111.759 661.048 110.836 667.866 109.913 674.839C105.824 705.945 101.824 740.127 100.107 755.058H85.3258C84.1208 728.489 76.0702 704.56 75.3139 678.901C75.1857 677.62 75.0959 676.236 75.0959 674.839C75.0959 669.622 75.301 664.329 75.7369 658.907C78.5315 623.713 83.326 579.316 83.326 579.316L77.8136 488.535L73.6986 464.593C73.6986 464.593 58.1999 421.016 60.7125 402.624L172.357 407.354ZM159.332 413.98C159.441 413.871 159.528 413.743 159.587 413.601C159.646 413.459 159.676 413.307 159.676 413.153C159.676 413 159.646 412.847 159.587 412.706C159.528 412.564 159.441 412.435 159.332 412.326C159.11 412.109 158.81 411.987 158.499 411.987C158.188 411.987 157.889 412.109 157.666 412.326L145.692 425.028C145.585 425.14 145.501 425.273 145.446 425.418C145.391 425.563 145.366 425.718 145.372 425.874C145.372 426.668 147.718 506.196 143.475 525.126C139.231 544.057 114.323 645.142 114.067 646.167C113.993 646.47 114.042 646.789 114.203 647.056C114.364 647.322 114.624 647.514 114.926 647.59C115.019 647.603 115.114 647.603 115.208 647.59C115.471 647.589 115.726 647.5 115.933 647.338C116.139 647.175 116.286 646.948 116.349 646.693C116.605 645.68 141.475 544.698 145.833 525.613C150.013 506.965 148.013 433.615 147.808 426.258L159.332 413.98ZM125.553 453.507C125.671 453.406 125.768 453.283 125.839 453.144C125.909 453.006 125.952 452.855 125.963 452.7C125.975 452.545 125.957 452.39 125.908 452.242C125.86 452.095 125.783 451.958 125.681 451.84C120.042 445.242 116.503 437.111 115.516 428.488C115.514 428.324 115.478 428.161 115.409 428.011C115.341 427.861 115.242 427.728 115.119 427.618C114.996 427.509 114.851 427.427 114.694 427.377C114.537 427.327 114.371 427.31 114.207 427.328C114.044 427.346 113.885 427.398 113.743 427.481C113.601 427.564 113.477 427.676 113.381 427.809C113.284 427.943 113.217 428.095 113.182 428.256C113.148 428.417 113.148 428.584 113.182 428.745C114.219 437.84 117.951 446.419 123.899 453.378C123.999 453.496 124.121 453.593 124.258 453.663C124.396 453.733 124.546 453.776 124.7 453.788C124.853 453.799 125.008 453.781 125.154 453.733C125.301 453.684 125.437 453.608 125.553 453.507Z" fill="#F98C3A"/>
<path d="M169.075 392.281C169.072 391.971 168.946 391.674 168.725 391.456C168.505 391.237 168.206 391.115 167.896 391.115L63.7509 391.705C63.4381 391.705 63.1382 391.829 62.917 392.05C62.6958 392.271 62.5716 392.571 62.5716 392.884C62.5716 393.196 62.6958 393.496 62.917 393.718C63.1382 393.939 63.4381 394.063 63.7509 394.063L167.934 393.473C168.243 393.463 168.535 393.333 168.748 393.11C168.961 392.887 169.079 392.59 169.075 392.281ZM168.575 383.399C169.639 391.743 171.447 398.92 172.357 407.354L60.6999 402.65C61.405 397.447 53.7646 390.577 55.9567 383.425L168.575 383.399Z" fill="#19627C"/>
<path d="M169.075 392.281C169.075 392.594 168.951 392.894 168.73 393.115C168.508 393.336 168.208 393.46 167.896 393.46L63.7507 394.063C63.4379 394.063 63.1379 393.939 62.9167 393.718C62.6955 393.496 62.5713 393.196 62.5713 392.884C62.5713 392.571 62.6955 392.271 62.9167 392.05C63.1379 391.829 63.4379 391.705 63.7507 391.705L167.896 391.115C168.206 391.115 168.504 391.237 168.725 391.456C168.946 391.674 169.072 391.971 169.075 392.281Z" fill="#003F5A"/>
<path d="M166.357 779H129.784L118.438 773.873L121.9 754.981C121.977 756.417 122.015 757.865 122.041 759.326L135.809 762.671C135.809 762.671 136.129 759.865 136.693 754.981L139.526 766.939L166.357 779Z" fill="#002F3F"/>
<path d="M164.011 319.546L168.69 331.543L167.896 337.951L134.809 289.325L128.399 262.538L161.819 320.738C161.923 320.915 162.071 321.063 162.248 321.166C162.425 321.269 162.627 321.325 162.832 321.328C163.038 321.325 163.24 321.272 163.422 321.174C163.691 321.018 163.888 320.763 163.969 320.463C164.051 320.163 164.011 319.843 163.857 319.572L164.011 319.546Z" fill="#19627C"/>
<path d="M161.845 320.764L128.425 262.563L126.502 254.489L163.883 319.598C164.037 319.868 164.077 320.188 163.995 320.488C163.914 320.788 163.717 321.044 163.448 321.2C163.266 321.298 163.064 321.35 162.858 321.354C162.653 321.351 162.451 321.295 162.274 321.192C162.097 321.089 161.949 320.941 161.845 320.764Z" fill="#003F5A"/>
<path d="M163.883 319.598L126.502 254.489L113.605 200.389C116.595 201.013 119.69 200.901 122.627 200.064C125.563 199.226 128.252 197.689 130.463 195.583C140.039 215.244 157.384 256.885 156.102 265.947C154.628 277.251 156.512 300.488 156.512 300.488L163.947 319.546L163.883 319.598Z" fill="#19627C"/>
<path d="M154.41 139.407C154.807 140.689 149.282 139.741 149.59 141.022C152.859 153.032 153.73 161.016 152.538 163.311C149.679 168.796 139.219 169.411 139.219 169.411L136.565 182.42C129.514 181.767 121.746 181.139 113.182 180.549C108.356 179.89 103.446 180.212 98.7478 181.498C98.7744 180.678 98.8515 179.86 98.9785 179.05L99.6195 175.089L104.183 153.442C104.183 153.442 86.0822 143.188 93.9277 133.05C101.773 122.912 124.835 156.761 124.835 156.761L126.874 151.737L116.426 129.808C116.426 129.808 123.707 123.04 122.156 114.21C127.18 112.102 131.757 109.057 135.642 105.238C137.565 108.904 139.052 114.402 140.565 123.374C141.385 128.27 153.666 136.87 154.41 139.407Z" fill="#F58968"/>
<path d="M136.68 755.033C136.116 759.89 135.796 762.723 135.796 762.723L122.04 759.378C122.04 757.917 122.04 756.468 121.899 755.033H136.68Z" fill="#002F3F"/>
<path d="M135.886 185.843C135.124 189.562 133.251 192.964 130.514 195.596C128.971 192.222 127.189 188.963 125.182 185.843C123.092 183.074 118.503 181.203 113.183 180.511C121.746 181.1 129.515 181.728 136.565 182.382L135.886 185.843Z" fill="#F58968"/>
<path d="M129.783 779H117.502L118.438 773.925L129.783 779Z" fill="#002F3F"/>
<path d="M125.182 185.842C127.169 188.948 128.934 192.19 130.463 195.545C128.252 197.651 125.563 199.188 122.627 200.025C119.691 200.862 116.595 200.974 113.606 200.351L108.798 180.203L113.183 180.511C118.503 181.241 123.066 183.113 125.182 185.842Z" fill="#F58968"/>
<path d="M118.438 773.925L117.503 779.051H80.916L85.3259 755.084C85.4028 756.52 85.4413 757.968 85.4669 759.429L99.2221 762.723C99.2221 762.723 99.5426 759.903 100.107 755.033L102.953 767.016L118.438 773.925Z" fill="#002F3F"/>
<path d="M157.678 412.327C157.901 412.109 158.2 411.987 158.512 411.987C158.823 411.987 159.122 412.109 159.345 412.327C159.454 412.435 159.54 412.564 159.599 412.706C159.658 412.847 159.689 413 159.689 413.153C159.689 413.307 159.658 413.459 159.599 413.601C159.54 413.743 159.454 413.872 159.345 413.98L147.705 426.322C147.91 433.679 149.91 507.068 145.731 525.678C141.436 544.762 116.566 645.745 116.246 646.757C116.183 647.012 116.037 647.239 115.83 647.402C115.623 647.565 115.368 647.653 115.105 647.654C115.011 647.667 114.917 647.667 114.823 647.654C114.521 647.579 114.261 647.386 114.1 647.12C113.939 646.853 113.89 646.534 113.964 646.232C114.221 645.206 139.09 544.236 143.372 525.191C147.654 506.145 145.295 426.733 145.269 425.938C145.263 425.783 145.288 425.628 145.343 425.482C145.398 425.337 145.482 425.204 145.59 425.092L157.678 412.327Z" fill="#EC791C"/>
<path d="M115.733 235.738L126.502 254.489L128.425 262.563L113.695 236.93C113.607 236.796 113.547 236.645 113.519 236.487C113.491 236.329 113.496 236.167 113.533 236.01C113.57 235.854 113.638 235.707 113.734 235.578C113.83 235.449 113.951 235.341 114.09 235.261C114.229 235.181 114.383 235.129 114.542 235.111C114.702 235.092 114.863 235.106 115.017 235.152C115.171 235.197 115.314 235.274 115.437 235.377C115.56 235.48 115.661 235.607 115.733 235.751V235.738Z" fill="#003F5A"/>
<path d="M125.63 451.84C125.731 451.958 125.808 452.095 125.857 452.242C125.905 452.39 125.924 452.545 125.912 452.7C125.9 452.855 125.858 453.006 125.787 453.144C125.717 453.283 125.62 453.406 125.502 453.507C125.385 453.608 125.25 453.684 125.103 453.733C124.957 453.781 124.802 453.799 124.648 453.788C124.494 453.776 124.344 453.733 124.207 453.663C124.07 453.593 123.948 453.496 123.848 453.378C117.9 446.419 114.168 437.84 113.131 428.745C113.097 428.584 113.097 428.417 113.131 428.256C113.165 428.095 113.233 427.943 113.329 427.809C113.426 427.676 113.549 427.564 113.692 427.481C113.834 427.398 113.992 427.346 114.156 427.328C114.32 427.31 114.485 427.327 114.642 427.377C114.799 427.427 114.944 427.509 115.067 427.618C115.191 427.728 115.29 427.861 115.358 428.011C115.426 428.161 115.462 428.324 115.464 428.488C116.451 437.111 119.991 445.242 125.63 451.84Z" fill="#EC791C"/>
<path d="M98.7096 181.498C103.408 180.212 108.318 179.89 113.144 180.549L108.76 180.242L113.567 200.389C109.272 199.474 105.434 197.083 102.719 193.631C100.005 190.18 98.5861 185.886 98.7096 181.498Z" fill="#F58968"/>
<path d="M103.696 282.711L96.7734 296.297C91.197 296.297 72.1089 298.86 72.1089 298.86L77.7494 273.868L103.696 282.711Z" fill="#F98C3A"/>
<path d="M85.3257 755.033H100.106C99.5424 759.903 99.2219 762.723 99.2219 762.723L85.4667 759.378C85.4411 757.917 85.4026 756.468 85.3257 755.033Z" fill="#002F3F"/>
<path d="M99.6196 175.089C81.2366 151.75 71.7887 143.265 70.8144 122.848C69.8401 102.431 113.477 91.1396 128.053 98.1888C131.331 99.5761 134.018 102.071 135.642 105.238C131.757 109.057 127.18 112.102 122.156 114.21C123.707 123.002 116.362 129.808 116.362 129.808L126.81 151.737L124.771 156.761C124.771 156.761 101.696 122.938 93.8637 133.05C86.031 143.163 104.119 153.442 104.119 153.442L99.6196 175.089Z" fill="#002F3F"/>
<path d="M98.7094 181.498C98.586 185.886 100.005 190.18 102.719 193.631C105.434 197.083 109.272 199.474 113.567 200.389L126.463 254.489L115.695 235.738C115.623 235.595 115.522 235.468 115.399 235.365C115.276 235.262 115.133 235.185 114.979 235.139C114.825 235.093 114.663 235.079 114.504 235.098C114.344 235.117 114.191 235.168 114.052 235.248C113.913 235.329 113.791 235.437 113.696 235.566C113.6 235.694 113.531 235.841 113.494 235.998C113.458 236.154 113.453 236.316 113.481 236.474C113.509 236.632 113.569 236.783 113.657 236.917L128.386 262.55L134.796 289.337L167.934 337.977L168.729 331.569L185.202 373.774C185.76 376.431 185.508 379.195 184.48 381.708C183.452 384.22 181.694 386.368 179.433 387.872L173.908 391.551L172.395 407.354C171.485 398.92 169.678 391.743 168.614 383.399H55.9567C53.7646 390.577 61.4049 397.498 60.6999 402.624L51.0084 386.514C47.6753 382.912 47.3805 350.422 47.3677 341.655C53.7774 339.682 58.2001 337.926 58.2001 337.926L59.0846 328.249C61.5509 327.635 64.0505 327.164 66.5712 326.839C69.135 326.839 87.5565 324.801 88.8128 321.879C90.0691 318.957 96.3122 321.956 96.2481 318.636C96.1572 316.423 95.7648 314.233 95.0815 312.126L103.696 310.306L119.567 269.292L103.696 282.711L77.7497 273.893L72.1091 298.886L70.558 291.196C68.4172 291.76 64.4688 296.323 61.6998 299.783L63.7381 277.597L98.0172 181.78L98.7094 181.498Z" fill="#19627C"/>
<path d="M87.9023 313.689L96.7734 296.297C97.6579 296.297 98.1963 296.297 98.2861 296.502L101.811 302.398L94.1198 305.064C94.1198 305.064 96.9657 307.999 96.6836 309.28C96.3197 310.31 95.7868 311.271 95.1069 312.126L87.9023 313.689Z" fill="#F58968"/>
<path d="M98.017 181.715L63.7379 277.533L61.6996 299.719C59.9433 301.936 58.6614 303.718 58.6614 303.718L49.252 312.318C49.9057 303.115 50.6749 292.593 51.4441 282.365C55.6809 269.611 59.0515 256.585 61.533 243.377C62.5272 239.121 62.8515 234.736 62.4944 230.38C62.3238 228.919 61.9839 227.483 61.4817 226.1C69.622 212.437 84.0438 191.828 90.4535 185.881C92.6376 183.953 95.2201 182.531 98.017 181.715Z" fill="#19627C"/>
<path d="M96.7734 296.297L87.9024 313.689L85.1719 319.047L72.1089 298.886C72.1089 298.886 91.197 296.31 96.7734 296.297Z" fill="#F58968"/>
<path d="M96.248 318.688C96.248 322.007 90.069 318.995 88.8127 321.93C87.5564 324.865 69.2246 326.89 66.571 326.89C64.0504 327.216 61.5507 327.686 59.0845 328.3L61.6484 299.719C64.4173 296.258 68.3657 291.696 70.5066 291.132L72.0577 298.822L85.1207 318.982L87.8512 313.625L95.0301 312.113C95.7365 314.238 96.1463 316.45 96.248 318.688Z" fill="#F58968"/>
<path d="M95.0686 312.125C95.7486 311.271 96.2815 310.31 96.6454 309.28C96.9659 307.998 94.0815 305.063 94.0815 305.063L101.773 302.398L98.2479 296.502C98.1581 296.361 97.6197 296.297 96.7352 296.297L103.658 282.711L119.528 269.292L103.658 310.305L95.043 312.125H95.0686Z" fill="#F98C3A"/>
<path d="M70.8142 122.848C71.8269 143.265 81.2364 151.75 99.6194 175.089C72.6986 147.469 56.6872 123.412 67.1991 111.313C77.711 99.2142 139.18 77.5027 140.859 91.819C141.488 97.2148 139.001 101.726 135.642 105.238C134.017 102.071 131.331 99.5761 128.053 98.1889C113.477 91.1397 69.8015 102.431 70.8142 122.848Z" fill="#002F3F"/>
<path d="M61.6994 299.719L59.1356 328.3C55.6359 329.082 51.4439 330.043 48.0083 330.864C48.3288 326.07 48.7775 319.598 49.2902 312.292L58.6612 303.756C58.6612 303.756 59.9432 301.936 61.6994 299.719Z" fill="#F58968"/>
<path d="M52.2645 271.83C55.0588 262.323 57.3693 252.681 59.187 242.941C60.1336 238.921 60.4536 234.78 60.1356 230.662C60.0587 230.056 59.9562 229.466 59.828 228.894C60.3408 228.009 60.8792 227.074 61.456 226.1C61.9583 227.483 62.2982 228.919 62.4688 230.38C62.8343 234.735 62.5186 239.119 61.533 243.377C59.0599 256.584 55.6979 269.61 51.4697 282.365C51.7518 278.802 52.021 275.277 52.2902 271.855L52.2645 271.83Z" fill="#003F5A"/>
<path d="M55.7131 237.378C56.7956 234.419 58.1743 231.576 59.8281 228.894C59.9563 229.466 60.0589 230.056 60.1358 230.663C60.4537 234.78 60.1337 238.921 59.1871 242.941C57.3694 252.681 55.059 262.323 52.2646 271.83C53.6491 254.604 54.9695 240.147 55.7131 237.378Z" fill="#19627C"/>
<path d="M56.059 218.717C58.5922 220.547 60.4813 223.131 61.456 226.1C60.8791 227.074 60.3407 228.009 59.8279 228.894C59.2165 225.6 57.3855 222.657 54.7002 220.653C54.4456 220.472 54.273 220.198 54.2202 219.891C54.1673 219.583 54.2385 219.267 54.4181 219.012C54.5043 218.882 54.6158 218.771 54.7459 218.686C54.8761 218.6 55.0223 218.542 55.1756 218.514C55.3289 218.487 55.4863 218.491 55.6381 218.525C55.7899 218.56 55.9331 218.626 56.059 218.717Z" fill="#003F5A"/>
<path d="M51.4442 282.365C50.675 292.618 49.9058 303.115 49.252 312.318L48.1239 313.356L40.3425 332.735C40.3425 332.735 43.6628 331.915 47.9445 330.889L47.4317 339.553V341.706C34.0995 345.821 12.0886 350.909 2.94831 343.219C-10.589 331.838 27.6641 229.881 32.433 220.46C37.2018 211.04 87.4795 181.856 99.0939 179.05L98.1325 181.715C95.289 182.5 92.6567 183.91 90.428 185.842C84.0183 191.789 69.5964 212.399 61.4561 226.061C60.4814 223.093 58.5923 220.509 56.0591 218.679C55.9336 218.589 55.7914 218.526 55.6409 218.492C55.4904 218.458 55.3346 218.455 55.1828 218.482C55.031 218.51 54.8863 218.567 54.7572 218.652C54.6281 218.736 54.5172 218.846 54.4311 218.974C54.2514 219.229 54.1802 219.545 54.2331 219.852C54.286 220.16 54.4586 220.434 54.7131 220.614C57.3984 222.618 59.2294 225.561 59.8409 228.855C58.187 231.538 56.8084 234.38 55.7258 237.34C54.9823 240.108 53.6619 254.566 52.2774 271.791C48.7283 283.905 44.4211 295.784 39.3811 307.358L30.0614 306.678C29.9044 306.659 29.745 306.672 29.5934 306.717C29.4418 306.762 29.3012 306.839 29.1807 306.941C29.0601 307.044 28.9622 307.17 28.8931 307.312C28.824 307.455 28.7853 307.61 28.7794 307.768C28.7636 307.924 28.7795 308.082 28.8262 308.232C28.8729 308.382 28.9494 308.521 29.0512 308.641C29.153 308.76 29.2779 308.858 29.4184 308.929C29.559 308.999 29.7122 309.04 29.8691 309.05L45.7652 310.203H45.8421C46.1346 310.186 46.4102 310.06 46.6152 309.851C46.8203 309.642 46.94 309.364 46.9512 309.071C46.9624 308.778 46.8643 308.492 46.6758 308.268C46.4874 308.043 46.2221 307.897 45.9318 307.858L41.8296 307.563C45.419 299.334 48.6239 290.935 51.4442 282.365Z" fill="#19627C"/>
<path d="M48.1239 313.356L49.252 312.318C48.7264 319.623 48.2777 326.096 47.9701 330.889C43.6884 331.914 40.3682 332.735 40.3682 332.735L48.1239 313.356Z" fill="#F58968"/>
<path d="M47.4316 339.553L48.0085 330.889C51.4954 330.043 55.7002 329.082 59.1358 328.326L58.2512 338.002C58.2512 338.002 53.8413 339.733 47.4316 341.706V339.553Z" fill="#19627C"/>
<path d="M51.4441 282.365C48.6323 290.91 45.4317 299.322 41.8423 307.601L39.3682 307.422C44.4081 295.848 48.7154 283.969 52.2645 271.855C51.9953 275.278 51.7261 278.802 51.4441 282.365Z" fill="#003F5A"/>
<path d="M41.8423 307.601C41.6885 307.973 41.5218 308.358 41.3552 308.729C41.2646 308.939 41.1143 309.118 40.9228 309.244C40.7313 309.369 40.5072 309.435 40.2783 309.434C40.1158 309.437 39.9545 309.406 39.804 309.344C39.5189 309.218 39.2955 308.984 39.1826 308.693C39.0696 308.403 39.0765 308.079 39.2015 307.794C39.2015 307.665 39.3041 307.55 39.3682 307.422L41.8423 307.601Z" fill="#003F5A"/>
<path d="M45.9444 307.896C46.2348 307.935 46.5 308.082 46.6884 308.306C46.8769 308.53 46.9751 308.817 46.9639 309.109C46.9527 309.402 46.8329 309.68 46.6279 309.889C46.4228 310.099 46.1472 310.224 45.8547 310.241H45.7778L29.8817 309.088C29.7249 309.078 29.5716 309.037 29.4311 308.967C29.2905 308.897 29.1656 308.799 29.0638 308.679C28.9621 308.559 28.8856 308.42 28.8389 308.27C28.7922 308.12 28.7762 307.963 28.7921 307.806C28.798 307.648 28.8367 307.493 28.9057 307.351C28.9748 307.208 29.0727 307.082 29.1933 306.98C29.3138 306.877 29.4544 306.801 29.606 306.756C29.7576 306.71 29.917 306.697 30.074 306.717L39.3937 307.396C39.3296 307.524 39.2784 307.64 39.2271 307.768C39.102 308.053 39.0952 308.377 39.2081 308.668C39.321 308.958 39.5445 309.192 39.8296 309.319C39.98 309.38 40.1414 309.411 40.3039 309.408C40.5328 309.409 40.7569 309.343 40.9484 309.218C41.1398 309.092 41.2902 308.914 41.3807 308.703C41.5474 308.332 41.714 307.947 41.8679 307.576L45.9444 307.896Z" fill="#003F5A"/>
</g>
<defs>
<clipPath id="clip0">
<rect width="299" height="779" fill="white"/>
</clipPath>
</defs>
</svg>
