<svg width="872" height="923" viewBox="0 0 872 923" fill="none" xmlns="http://www.w3.org/2000/svg">
<g filter="url(#filter0_dd)">
<path d="M811.198 849.415L754.848 246.172C753.945 235.057 748.891 224.695 740.698 217.16C732.505 209.626 721.778 205.475 710.665 205.539H590.161V178.682C589.725 137.943 573.291 99.0204 544.428 70.3668C515.565 41.7131 476.602 25.6414 436 25.6414C395.398 25.6414 356.436 41.7131 327.572 70.3668C298.709 99.0204 282.275 137.943 281.84 178.682V205.539H161.406C150.264 205.439 139.497 209.576 131.271 217.117C123.045 224.658 117.969 235.045 117.064 246.189L107.841 354.757L60.7845 849.415C60.2613 855.555 61.0149 861.738 62.9977 867.571C64.9805 873.403 68.1492 878.759 72.303 883.299C76.4568 887.838 81.5051 891.463 87.1279 893.942C92.7507 896.421 98.8255 897.701 104.967 897.701H767.033C773.173 897.698 779.246 896.417 784.867 893.936C790.487 891.456 795.534 887.832 799.685 883.292C803.837 878.753 807.004 873.398 808.986 867.566C810.968 861.735 811.721 855.554 811.198 849.415V849.415ZM435.991 62.6036C466.652 62.6507 496.043 74.8971 517.719 96.6574C539.394 118.418 551.585 147.915 551.618 178.682V205.539H320.311V178.682C320.349 147.907 332.548 118.404 354.235 96.6437C375.921 74.883 405.323 62.6413 435.991 62.6036V62.6036ZM146.241 358.067L155.482 249.5C155.607 248.036 156.277 246.674 157.358 245.684C158.44 244.695 159.854 244.151 161.317 244.16H281.928V266.265C270.718 270.753 261.416 279.019 255.622 289.644C249.827 300.268 247.903 312.586 250.18 324.48C252.457 336.373 258.793 347.099 268.097 354.813C277.402 362.527 289.095 366.747 301.164 366.747C313.234 366.747 324.926 362.527 334.231 354.813C343.536 347.099 349.871 336.373 352.148 324.48C354.425 312.586 352.501 300.268 346.707 289.644C340.912 279.019 331.61 270.753 320.4 266.265V244.089H551.618V266.194C540.414 270.683 531.119 278.948 525.33 289.569C519.541 300.19 517.62 312.503 519.898 324.39C522.176 336.278 528.509 346.998 537.811 354.708C547.112 362.418 558.799 366.635 570.863 366.635C582.927 366.635 594.614 362.418 603.915 354.708C613.216 346.998 619.55 336.278 621.828 324.39C624.105 312.503 622.185 300.19 616.396 289.569C610.607 278.948 601.311 270.683 590.107 266.194V244.089H710.612C712.076 244.083 713.49 244.628 714.573 245.617C715.657 246.605 716.332 247.965 716.465 249.429L772.815 852.618C772.881 853.429 772.78 854.244 772.517 855.012C772.254 855.781 771.835 856.487 771.287 857.085C770.739 857.684 770.073 858.162 769.332 858.49C768.591 858.817 767.79 858.988 766.98 858.99H104.967C104.155 859 103.35 858.834 102.607 858.506C101.863 858.178 101.199 857.693 100.657 857.086C100.103 856.502 99.6809 855.806 99.4178 855.045C99.1546 854.283 99.0571 853.474 99.1317 852.672L146.241 358.067ZM301.067 328.042C298.411 328.042 295.815 327.252 293.607 325.771C291.399 324.291 289.678 322.187 288.662 319.725C287.646 317.263 287.38 314.554 287.898 311.941C288.416 309.327 289.695 306.926 291.572 305.042C293.45 303.158 295.843 301.875 298.447 301.355C301.052 300.835 303.751 301.102 306.205 302.122C308.658 303.141 310.755 304.868 312.231 307.084C313.706 309.299 314.493 311.904 314.493 314.569C314.489 318.141 313.073 321.565 310.556 324.091C308.039 326.616 304.626 328.037 301.067 328.042V328.042ZM570.916 328.042C568.26 328.042 565.664 327.252 563.456 325.771C561.248 324.291 559.527 322.187 558.511 319.725C557.495 317.263 557.229 314.554 557.747 311.941C558.265 309.327 559.544 306.926 561.422 305.042C563.3 303.158 565.692 301.875 568.297 301.355C570.901 300.835 573.601 301.102 576.054 302.122C578.508 303.141 580.605 304.868 582.08 307.084C583.555 309.299 584.343 311.904 584.343 314.569C584.338 318.141 582.922 321.565 580.405 324.091C577.888 326.616 574.476 328.037 570.916 328.042Z" fill="#F9F9F9"/>
<path d="M435.991 614.536C454.9 614.539 473.386 608.916 489.11 598.377C504.834 587.838 517.09 572.857 524.329 555.328C531.567 537.799 533.463 518.51 529.776 499.9C526.089 481.291 516.986 464.196 503.616 450.778C490.247 437.36 473.212 428.221 454.667 424.518C436.121 420.815 416.898 422.714 399.428 429.974C381.958 437.235 367.026 449.53 356.52 465.307C346.015 481.083 340.407 499.631 340.407 518.605C340.454 544.03 350.539 568.4 368.454 586.38C386.369 604.36 410.654 614.484 435.991 614.536V614.536ZM376.998 518.605C376.998 506.897 380.458 495.452 386.94 485.717C393.423 475.982 402.636 468.395 413.416 463.915C424.195 459.434 436.057 458.262 447.5 460.546C458.944 462.83 469.455 468.468 477.706 476.747C485.956 485.026 491.575 495.573 493.851 507.056C496.127 518.539 494.959 530.441 490.494 541.258C486.029 552.075 478.467 561.32 468.766 567.824C459.065 574.329 447.659 577.801 435.991 577.801C420.351 577.782 405.357 571.539 394.298 560.442C383.238 549.344 377.017 534.299 376.998 518.605V518.605Z" fill="#F9F9F9"/>
<path d="M318.91 726.164H553.037C557.878 726.164 562.52 724.234 565.943 720.8C569.366 717.365 571.288 712.707 571.288 707.85C571.288 702.993 569.366 698.334 565.943 694.9C562.52 691.465 557.878 689.536 553.037 689.536H318.91C314.069 689.536 309.427 691.465 306.004 694.9C302.581 698.334 300.659 702.993 300.659 707.85C300.659 712.707 302.581 717.365 306.004 720.8C309.427 724.234 314.069 726.164 318.91 726.164V726.164Z" fill="#F9F9F9"/>
<path d="M489.663 748.482H382.319C377.479 748.482 372.836 750.412 369.414 753.847C365.991 757.281 364.068 761.939 364.068 766.797C364.068 771.654 365.991 776.312 369.414 779.747C372.836 783.181 377.479 785.111 382.319 785.111H489.663C494.504 785.111 499.146 783.181 502.569 779.747C505.992 776.312 507.914 771.654 507.914 766.797C507.914 761.939 505.992 757.281 502.569 753.847C499.146 750.412 494.504 748.482 489.663 748.482V748.482Z" fill="#F9F9F9"/>
</g>
<defs>
<filter id="filter0_dd" x="-25" y="-1" width="922" height="925" filterUnits="userSpaceOnUse" color-interpolation-filters="sRGB">
<feFlood flood-opacity="0" result="BackgroundImageFix"/>
<feColorMatrix in="SourceAlpha" type="matrix" values="0 0 0 0 0 0 0 0 0 0 0 0 0 0 0 0 0 0 127 0"/>
<feOffset dx="10" dy="10"/>
<feGaussianBlur stdDeviation="7.5"/>
<feColorMatrix type="matrix" values="0 0 0 0 0 0 0 0 0 0 0 0 0 0 0 0 0 0 0.1 0"/>
<feBlend mode="normal" in2="BackgroundImageFix" result="effect1_dropShadow"/>
<feColorMatrix in="SourceAlpha" type="matrix" values="0 0 0 0 0 0 0 0 0 0 0 0 0 0 0 0 0 0 127 0"/>
<feOffset dx="-10" dy="-10"/>
<feGaussianBlur stdDeviation="7.5"/>
<feColorMatrix type="matrix" values="0 0 0 0 1 0 0 0 0 1 0 0 0 0 1 0 0 0 1 0"/>
<feBlend mode="normal" in2="effect1_dropShadow" result="effect2_dropShadow"/>
<feBlend mode="normal" in="SourceGraphic" in2="effect2_dropShadow" result="shape"/>
</filter>
</defs>
</svg>
